[01m[K/home/sergey/Apps/mru/sim_ws/src/ha1/ha1cpp/src/fib_publisher.cpp:2:31:[m[K [01;31m[Kfatal error: [m[Klecture1_msgs/Fib.h: No such file or directory
compilation terminated.
make[2]: *** [CMakeFiles/ha1cpp_fib_publisher.dir/src/fib_publisher.cpp.o] Error 1
make[1]: *** [CMakeFiles/ha1cpp_fib_publisher.dir/all] Error 2
make: *** [all] Error 2
