[01m[K/home/sergey/Apps/mru/sim_ws/src/ha1/ha1cpp/src/publisher.cpp:[m[K In function ‘[01m[Kint main(int, char**)[m[K’:
[01m[K/home/sergey/Apps/mru/sim_ws/src/ha1/ha1cpp/src/publisher.cpp:14:36:[m[K [01;31m[Kerror: [m[Kcannot convert ‘[01m[Kstd_msgs::String_<std::allocator<void> >::_data_type {aka std::__cxx11::basic_string<char>}[m[K’ to ‘[01m[Kchar*[m[K’ for argument ‘[01m[K1[m[K’ to ‘[01m[Kint sprintf(char*, const char*, ...)[m[K’
         sprintf(msg.data, "%d", c++);
[01;32m[K                                    ^[m[K
make[2]: *** [CMakeFiles/ha1cpp_publisher.dir/src/publisher.cpp.o] Error 1
make[1]: *** [CMakeFiles/ha1cpp_publisher.dir/all] Error 2
make[1]: *** Waiting for unfinished jobs....
make: *** [all] Error 2
