Linked: (/home/sergey/Apps/mru/sim_ws/devel/.private/ha1py/share/ha1py/cmake/ha1pyConfig-version.cmake, /home/sergey/Apps/mru/sim_ws/devel/share/ha1py/cmake/ha1pyConfig-version.cmake)
Linked: (/home/sergey/Apps/mru/sim_ws/devel/.private/ha1py/share/ha1py/cmake/ha1pyConfig.cmake, /home/sergey/Apps/mru/sim_ws/devel/share/ha1py/cmake/ha1pyConfig.cmake)
Linked: (/home/sergey/Apps/mru/sim_ws/devel/.private/ha1py/lib/pkgconfig/ha1py.pc, /home/sergey/Apps/mru/sim_ws/devel/lib/pkgconfig/ha1py.pc)
