[31m[1mCMake Error[0m at /home/sergey/Apps/mru/sim_ws/build/lecture1_srvs/cmake/lecture1_srvs-genmsg.cmake:3 (message):
  Could not find messages which
  '/home/sergey/Apps/mru/sim_ws/src/ha1/lecture1_srvs/srv/Pow.srv' depends
  on.  Did you forget to specify generate_messages(DEPENDENCIES ...)?

  Cannot locate message [int]: unknown package [lecture1_srvs] on search path
  [{{}}]
[36mCall Stack (most recent call first):[0m
  /opt/ros/kinetic/share/genmsg/cmake/genmsg-extras.cmake:307 (include)
  CMakeLists.txt:67 (generate_messages)


make: *** [cmake_check_build_system] Error 1
