catkin_generated/env_cached.sh: 16: exec: /home/sergey/Apps/mru/sim_ws/src/ha2/lecture2_dr_cpp/cfg/DR.cfg: Permission denied
make[2]: *** [/home/sergey/Apps/mru/sim_ws/devel/.private/lecture2_dr_cpp/include/lecture2_dr_cpp/DRConfig.h] Error 126
make[1]: *** [CMakeFiles/lecture2_dr_cpp_gencfg.dir/all] Error 2
make: *** [all] Error 2
