In file included from [01m[K/opt/ros/kinetic/include/ros/ros.h:40:0[m[K,
                 from [01m[K/home/sergey/Apps/mru/sim_ws/src/ha2/lecture2_tf2_cpp/src/dr_node.cpp:1[m[K:
[01m[K/home/sergey/Apps/mru/sim_ws/src/ha2/lecture2_tf2_cpp/src/dr_node.cpp:[m[K In function ‘[01m[Kvoid callback(lecture2_dr_cpp::DRConfig&, uint32_t)[m[K’:
[01m[K/home/sergey/Apps/mru/sim_ws/src/ha2/lecture2_tf2_cpp/src/dr_node.cpp:7:35:[m[K [01;31m[Kerror: [m[K‘[01m[Kclass lecture2_dr_cpp::DRConfig[m[K’ has no member named ‘[01m[Kxparam[m[K’
     ROS_INFO_STREAM(" " << config.xparam << " " << config.yparam << " " << config.zparam);
[01;32m[K                                   ^[m[K
[01m[K/opt/ros/kinetic/include/ros/console.h:356:64:[m[K [01;36m[Knote: [m[Kin definition of macro ‘[01m[KROSCONSOLE_PRINT_STREAM_AT_LOCATION_WITH_FILTER[m[K’
     __rosconsole_print_stream_at_location_with_filter__ss__ << args; \
[01;32m[K                                                                ^[m[K
[01m[K/opt/ros/kinetic/include/ros/console.h:398:7:[m[K [01;36m[Knote: [m[Kin expansion of macro ‘[01m[KROSCONSOLE_PRINT_STREAM_AT_LOCATION[m[K’
       ROSCONSOLE_PRINT_STREAM_AT_LOCATION(args); \
[01;32m[K       ^[m[K
[01m[K/opt/ros/kinetic/include/ros/console.h:568:43:[m[K [01;36m[Knote: [m[Kin expansion of macro ‘[01m[KROS_LOG_STREAM_COND[m[K’
 #define ROS_LOG_STREAM(level, name, args) ROS_LOG_STREAM_COND(true, level, name, args)
[01;32m[K                                           ^[m[K
[01m[K/opt/ros/kinetic/include/rosconsole/macros_generated.h:111:31:[m[K [01;36m[Knote: [m[Kin expansion of macro ‘[01m[KROS_LOG_STREAM[m[K’
 #define ROS_INFO_STREAM(args) ROS_LOG_STREAM(::ros::console::levels::Info, ROSCONSOLE_DEFAULT_NAME, args)
[01;32m[K                               ^[m[K
[01m[K/home/sergey/Apps/mru/sim_ws/src/ha2/lecture2_tf2_cpp/src/dr_node.cpp:7:5:[m[K [01;36m[Knote: [m[Kin expansion of macro ‘[01m[KROS_INFO_STREAM[m[K’
     ROS_INFO_STREAM(" " << config.xparam << " " << config.yparam << " " << config.zparam);
[01;32m[K     ^[m[K
[01m[K/home/sergey/Apps/mru/sim_ws/src/ha2/lecture2_tf2_cpp/src/dr_node.cpp:7:59:[m[K [01;31m[Kerror: [m[K‘[01m[Kclass lecture2_dr_cpp::DRConfig[m[K’ has no member named ‘[01m[Kyparam[m[K’
     ROS_INFO_STREAM(" " << config.xparam << " " << config.yparam << " " << config.zparam);
[01;32m[K                                                           ^[m[K
[01m[K/opt/ros/kinetic/include/ros/console.h:356:64:[m[K [01;36m[Knote: [m[Kin definition of macro ‘[01m[KROSCONSOLE_PRINT_STREAM_AT_LOCATION_WITH_FILTER[m[K’
     __rosconsole_print_stream_at_location_with_filter__ss__ << args; \
[01;32m[K                                                                ^[m[K
[01m[K/opt/ros/kinetic/include/ros/console.h:398:7:[m[K [01;36m[Knote: [m[Kin expansion of macro ‘[01m[KROSCONSOLE_PRINT_STREAM_AT_LOCATION[m[K’
       ROSCONSOLE_PRINT_STREAM_AT_LOCATION(args); \
[01;32m[K       ^[m[K
[01m[K/opt/ros/kinetic/include/ros/console.h:568:43:[m[K [01;36m[Knote: [m[Kin expansion of macro ‘[01m[KROS_LOG_STREAM_COND[m[K’
 #define ROS_LOG_STREAM(level, name, args) ROS_LOG_STREAM_COND(true, level, name, args)
[01;32m[K                                           ^[m[K
[01m[K/opt/ros/kinetic/include/rosconsole/macros_generated.h:111:31:[m[K [01;36m[Knote: [m[Kin expansion of macro ‘[01m[KROS_LOG_STREAM[m[K’
 #define ROS_INFO_STREAM(args) ROS_LOG_STREAM(::ros::console::levels::Info, ROSCONSOLE_DEFAULT_NAME, args)
[01;32m[K                               ^[m[K
[01m[K/home/sergey/Apps/mru/sim_ws/src/ha2/lecture2_tf2_cpp/src/dr_node.cpp:7:5:[m[K [01;36m[Knote: [m[Kin expansion of macro ‘[01m[KROS_INFO_STREAM[m[K’
     ROS_INFO_STREAM(" " << config.xparam << " " << config.yparam << " " << config.zparam);
[01;32m[K     ^[m[K
[01m[K/home/sergey/Apps/mru/sim_ws/src/ha2/lecture2_tf2_cpp/src/dr_node.cpp:7:83:[m[K [01;31m[Kerror: [m[K‘[01m[Kclass lecture2_dr_cpp::DRConfig[m[K’ has no member named ‘[01m[Kzparam[m[K’
     ROS_INFO_STREAM(" " << config.xparam << " " << config.yparam << " " << config.zparam);
[01;32m[K                                                                                   ^[m[K
[01m[K/opt/ros/kinetic/include/ros/console.h:356:64:[m[K [01;36m[Knote: [m[Kin definition of macro ‘[01m[KROSCONSOLE_PRINT_STREAM_AT_LOCATION_WITH_FILTER[m[K’
     __rosconsole_print_stream_at_location_with_filter__ss__ << args; \
[01;32m[K                                                                ^[m[K
[01m[K/opt/ros/kinetic/include/ros/console.h:398:7:[m[K [01;36m[Knote: [m[Kin expansion of macro ‘[01m[KROSCONSOLE_PRINT_STREAM_AT_LOCATION[m[K’
       ROSCONSOLE_PRINT_STREAM_AT_LOCATION(args); \
[01;32m[K       ^[m[K
[01m[K/opt/ros/kinetic/include/ros/console.h:568:43:[m[K [01;36m[Knote: [m[Kin expansion of macro ‘[01m[KROS_LOG_STREAM_COND[m[K’
 #define ROS_LOG_STREAM(level, name, args) ROS_LOG_STREAM_COND(true, level, name, args)
[01;32m[K                                           ^[m[K
[01m[K/opt/ros/kinetic/include/rosconsole/macros_generated.h:111:31:[m[K [01;36m[Knote: [m[Kin expansion of macro ‘[01m[KROS_LOG_STREAM[m[K’
 #define ROS_INFO_STREAM(args) ROS_LOG_STREAM(::ros::console::levels::Info, ROSCONSOLE_DEFAULT_NAME, args)
[01;32m[K                               ^[m[K
[01m[K/home/sergey/Apps/mru/sim_ws/src/ha2/lecture2_tf2_cpp/src/dr_node.cpp:7:5:[m[K [01;36m[Knote: [m[Kin expansion of macro ‘[01m[KROS_INFO_STREAM[m[K’
     ROS_INFO_STREAM(" " << config.xparam << " " << config.yparam << " " << config.zparam);
[01;32m[K     ^[m[K
[01m[K/home/sergey/Apps/mru/sim_ws/src/ha2/lecture2_tf2_cpp/src/publisher.cpp:[m[K In function ‘[01m[Kint main(int, char**)[m[K’:
[01m[K/home/sergey/Apps/mru/sim_ws/src/ha2/lecture2_tf2_cpp/src/publisher.cpp:44:22:[m[K [01;31m[Kerror: [m[Kbinding ‘[01m[Kvolatile double[m[K’ to reference of type ‘[01m[Kconst tf2Scalar& {aka const double&}[m[K’ discards qualifiers
     sq.setRPY(A, A, A);
[01;32m[K                      ^[m[K
In file included from [01m[K/home/sergey/Apps/mru/sim_ws/src/ha2/lecture2_tf2_cpp/src/publisher.cpp:2:0[m[K:
[01m[K/opt/ros/kinetic/include/tf2/LinearMath/Quaternion.h:93:8:[m[K [01;36m[Knote: [m[K  initializing argument 1 of ‘[01m[Kvoid tf2::Quaternion::setRPY(const tf2Scalar&, const tf2Scalar&, const tf2Scalar&)[m[K’
   void setRPY(const tf2Scalar& roll, const tf2Scalar& pitch, const tf2Scalar& yaw)
[01;32m[K        ^[m[K
make[2]: *** [CMakeFiles/lecture2_tf2_cpp_dr_node.dir/src/dr_node.cpp.o] Error 1
make[1]: *** [CMakeFiles/lecture2_tf2_cpp_dr_node.dir/all] Error 2
make[1]: *** Waiting for unfinished jobs....
make[2]: *** [CMakeFiles/lecture2_tf2_cpp_publisher.dir/src/publisher.cpp.o] Error 1
make[1]: *** [CMakeFiles/lecture2_tf2_cpp_publisher.dir/all] Error 2
make: *** [all] Error 2
