Determining if the pthread_create exist failed with the following output:
Change Dir: /home/sergey/Apps/mru/sim_ws/build/lecture1_topic_py/CMakeFiles/CMakeTmp

Run Build Command:"/usr/bin/make" "cmTC_195fd/fast"
/usr/bin/make -f CMakeFiles/cmTC_195fd.dir/build.make CMakeFiles/cmTC_195fd.dir/build
make[1]: Entering directory '/home/sergey/Apps/mru/sim_ws/build/lecture1_topic_py/CMakeFiles/CMakeTmp'
Building C object CMakeFiles/cmTC_195fd.dir/CheckSymbolExists.c.o
/usr/bin/cc     -o CMakeFiles/cmTC_195fd.dir/CheckSymbolExists.c.o   -c /home/sergey/Apps/mru/sim_ws/build/lecture1_topic_py/CMakeFiles/CMakeTmp/CheckSymbolExists.c
Linking C executable cmTC_195fd
/usr/bin/cmake -E cmake_link_script CMakeFiles/cmTC_195fd.dir/link.txt --verbose=1
/usr/bin/cc       CMakeFiles/cmTC_195fd.dir/CheckSymbolExists.c.o  -o cmTC_195fd -rdynamic 
CMakeFiles/cmTC_195fd.dir/CheckSymbolExists.c.o: In function `main':
CheckSymbolExists.c:(.text+0x16): undefined reference to `pthread_create'
collect2: error: ld returned 1 exit status
CMakeFiles/cmTC_195fd.dir/build.make:97: recipe for target 'cmTC_195fd' failed
make[1]: *** [cmTC_195fd] Error 1
make[1]: Leaving directory '/home/sergey/Apps/mru/sim_ws/build/lecture1_topic_py/CMakeFiles/CMakeTmp'
Makefile:126: recipe for target 'cmTC_195fd/fast' failed
make: *** [cmTC_195fd/fast] Error 2

File /home/sergey/Apps/mru/sim_ws/build/lecture1_topic_py/CMakeFiles/CMakeTmp/CheckSymbolExists.c:
/* */
#include <pthread.h>

int main(int argc, char** argv)
{
  (void)argv;
#ifndef pthread_create
  return ((int*)(&pthread_create))[argc];
#else
  (void)argc;
  return 0;
#endif
}

Determining if the function pthread_create exists in the pthreads failed with the following output:
Change Dir: /home/sergey/Apps/mru/sim_ws/build/lecture1_topic_py/CMakeFiles/CMakeTmp

Run Build Command:"/usr/bin/make" "cmTC_0011d/fast"
/usr/bin/make -f CMakeFiles/cmTC_0011d.dir/build.make CMakeFiles/cmTC_0011d.dir/build
make[1]: Entering directory '/home/sergey/Apps/mru/sim_ws/build/lecture1_topic_py/CMakeFiles/CMakeTmp'
Building C object CMakeFiles/cmTC_0011d.dir/CheckFunctionExists.c.o
/usr/bin/cc    -DCHECK_FUNCTION_EXISTS=pthread_create   -o CMakeFiles/cmTC_0011d.dir/CheckFunctionExists.c.o   -c /usr/share/cmake-3.5/Modules/CheckFunctionExists.c
Linking C executable cmTC_0011d
/usr/bin/cmake -E cmake_link_script CMakeFiles/cmTC_0011d.dir/link.txt --verbose=1
/usr/bin/cc   -DCHECK_FUNCTION_EXISTS=pthread_create    CMakeFiles/cmTC_0011d.dir/CheckFunctionExists.c.o  -o cmTC_0011d -rdynamic -lpthreads 
/usr/bin/ld: cannot find -lpthreads
collect2: error: ld returned 1 exit status
CMakeFiles/cmTC_0011d.dir/build.make:97: recipe for target 'cmTC_0011d' failed
make[1]: *** [cmTC_0011d] Error 1
make[1]: Leaving directory '/home/sergey/Apps/mru/sim_ws/build/lecture1_topic_py/CMakeFiles/CMakeTmp'
Makefile:126: recipe for target 'cmTC_0011d/fast' failed
make: *** [cmTC_0011d/fast] Error 2


