Linked: (/home/sergey/Apps/mru/sim_ws/devel/.private/lecture1_service_py/share/lecture1_service_py/cmake/lecture1_service_pyConfig-version.cmake, /home/sergey/Apps/mru/sim_ws/devel/share/lecture1_service_py/cmake/lecture1_service_pyConfig-version.cmake)
Linked: (/home/sergey/Apps/mru/sim_ws/devel/.private/lecture1_service_py/share/lecture1_service_py/cmake/lecture1_service_pyConfig.cmake, /home/sergey/Apps/mru/sim_ws/devel/share/lecture1_service_py/cmake/lecture1_service_pyConfig.cmake)
Linked: (/home/sergey/Apps/mru/sim_ws/devel/.private/lecture1_service_py/lib/pkgconfig/lecture1_service_py.pc, /home/sergey/Apps/mru/sim_ws/devel/lib/pkgconfig/lecture1_service_py.pc)
