[01m[K/home/sergey/Apps/mru/sim_ws/src/ha2/lecture2_action_cpp/src/server.cpp:8:25:[m[K [01;35m[Kwarning: [m[Knon-static data member initializers only available with -std=c++11 or -std=gnu++11
     const double RATE = 10.0;
[01;32m[K                         ^[m[K
[01m[K/home/sergey/Apps/mru/sim_ws/src/ha2/lecture2_action_cpp/src/server.cpp:11:23:[m[K [01;35m[Kwarning: [m[Knon-static data member initializers only available with -std=c++11 or -std=gnu++11
     double position = 0;
[01;32m[K                       ^[m[K
[01m[K/home/sergey/Apps/mru/sim_ws/src/ha2/lecture2_action_cpp/src/client.cpp:[m[K In function ‘[01m[Kint main(int, char**)[m[K’:
[01m[K/home/sergey/Apps/mru/sim_ws/src/ha2/lecture2_action_cpp/src/client.cpp:37:48:[m[K [01;31m[Kerror: [m[K‘[01m[Knullptr[m[K’ was not declared in this scope
     goal.position = argc > 1 ? strtod(argv[1], nullptr) : 100.0;
[01;32m[K                                                ^[m[K
make[2]: *** [CMakeFiles/lecture2_action_cpp_client.dir/src/client.cpp.o] Error 1
make[1]: *** [CMakeFiles/lecture2_action_cpp_client.dir/all] Error 2
make[1]: *** Waiting for unfinished jobs....
make: *** [all] Error 2
