Linked: (/home/sergey/Apps/mru/sim_ws/devel/.private/lecture1_service_cpp/share/lecture1_service_cpp/cmake/lecture1_service_cppConfig-version.cmake, /home/sergey/Apps/mru/sim_ws/devel/share/lecture1_service_cpp/cmake/lecture1_service_cppConfig-version.cmake)
Linked: (/home/sergey/Apps/mru/sim_ws/devel/.private/lecture1_service_cpp/share/lecture1_service_cpp/cmake/lecture1_service_cppConfig.cmake, /home/sergey/Apps/mru/sim_ws/devel/share/lecture1_service_cpp/cmake/lecture1_service_cppConfig.cmake)
Linked: (/home/sergey/Apps/mru/sim_ws/devel/.private/lecture1_service_cpp/lib/pkgconfig/lecture1_service_cpp.pc, /home/sergey/Apps/mru/sim_ws/devel/lib/pkgconfig/lecture1_service_cpp.pc)
Linked: (/home/sergey/Apps/mru/sim_ws/devel/.private/lecture1_service_cpp/lib/lecture1_service_cpp/server, /home/sergey/Apps/mru/sim_ws/devel/lib/lecture1_service_cpp/server)
Linked: (/home/sergey/Apps/mru/sim_ws/devel/.private/lecture1_service_cpp/lib/lecture1_service_cpp/client, /home/sergey/Apps/mru/sim_ws/devel/lib/lecture1_service_cpp/client)
